mc20_13TeV.502970.MGPy8EG_hh_bbbb_vbf_novhh_l1cvv1cv1.deriv.DAOD_PHYS.e8263_s3681_r13144_p5855
mc20_13TeV.502970.MGPy8EG_hh_bbbb_vbf_novhh_l1cvv1cv1.deriv.DAOD_PHYS.e8263_s3681_r13167_p5855
mc20_13TeV.502970.MGPy8EG_hh_bbbb_vbf_novhh_l1cvv1cv1.deriv.DAOD_PHYS.e8263_s3681_r13145_p5855
mc20_13TeV.502971.MGPy8EG_hh_bbbb_vbf_novhh_l1cvv0cv1.deriv.DAOD_PHYS.e8263_s3681_r13144_p5855
mc20_13TeV.502971.MGPy8EG_hh_bbbb_vbf_novhh_l1cvv0cv1.deriv.DAOD_PHYS.e8263_s3681_r13145_p5855
mc20_13TeV.502971.MGPy8EG_hh_bbbb_vbf_novhh_l1cvv0cv1.deriv.DAOD_PHYS.e8263_s3681_r13167_p5855
mc20_13TeV.502973.MGPy8EG_hh_bbbb_vbf_novhh_l1cvv1p5cv1.deriv.DAOD_PHYS.e8263_s3681_r13144_p5855
mc20_13TeV.502973.MGPy8EG_hh_bbbb_vbf_novhh_l1cvv1p5cv1.deriv.DAOD_PHYS.e8263_s3681_r13167_p5855
mc20_13TeV.502973.MGPy8EG_hh_bbbb_vbf_novhh_l1cvv1p5cv1.deriv.DAOD_PHYS.e8263_s3681_r13145_p5855
mc20_13TeV.502977.MGPy8EG_hh_bbbb_vbf_novhh_l2cvv1cv1.deriv.DAOD_PHYS.e8263_s3681_r13144_p5855
mc20_13TeV.502977.MGPy8EG_hh_bbbb_vbf_novhh_l2cvv1cv1.deriv.DAOD_PHYS.e8263_s3681_r13167_p5855
mc20_13TeV.502977.MGPy8EG_hh_bbbb_vbf_novhh_l2cvv1cv1.deriv.DAOD_PHYS.e8263_s3681_r13145_p5855
mc20_13TeV.502978.MGPy8EG_hh_bbbb_vbf_novhh_l10cvv1cv1.deriv.DAOD_PHYS.e8263_s3681_r13144_p5855
mc20_13TeV.502978.MGPy8EG_hh_bbbb_vbf_novhh_l10cvv1cv1.deriv.DAOD_PHYS.e8263_s3681_r13145_p5855
mc20_13TeV.502978.MGPy8EG_hh_bbbb_vbf_novhh_l10cvv1cv1.deriv.DAOD_PHYS.e8263_s3681_r13167_p5855
mc20_13TeV.502979.MGPy8EG_hh_bbbb_vbf_novhh_l1cvv1cv0p5.deriv.DAOD_PHYS.e8263_s3681_r13144_p5855
mc20_13TeV.502979.MGPy8EG_hh_bbbb_vbf_novhh_l1cvv1cv0p5.deriv.DAOD_PHYS.e8263_s3681_r13145_p5855
mc20_13TeV.502979.MGPy8EG_hh_bbbb_vbf_novhh_l1cvv1cv0p5.deriv.DAOD_PHYS.e8263_s3681_r13167_p5855
mc20_13TeV.507684.MGPy8EG_hh_bbbb_vbf_novhh_l5mcvv1cv0p5.deriv.DAOD_PHYS.e8338_s3681_r13144_p5855
mc20_13TeV.507684.MGPy8EG_hh_bbbb_vbf_novhh_l5mcvv1cv0p5.deriv.DAOD_PHYS.e8338_s3681_r13167_p5855
mc20_13TeV.507684.MGPy8EG_hh_bbbb_vbf_novhh_l5mcvv1cv0p5.deriv.DAOD_PHYS.e8338_s3681_r13145_p5855
mc20_13TeV.512188.MGPy8EG_hh_bbbb_vbf_novhh_l0cvv1cv1_largeRfilt.deriv.DAOD_PHYS.e8338_s3681_r13145_p5855
mc20_13TeV.512188.MGPy8EG_hh_bbbb_vbf_novhh_l0cvv1cv1_largeRfilt.deriv.DAOD_PHYS.e8338_s3681_r13167_p5855
mc20_13TeV.512188.MGPy8EG_hh_bbbb_vbf_novhh_l0cvv1cv1_largeRfilt.deriv.DAOD_PHYS.e8338_s3681_r13144_p5855
mc20_13TeV.508788.MGPy8EG_hh_bbbb_vbf_novhh_l1cvv1cv1_largeRfilt.deriv.DAOD_PHYS.e8338_s3681_r13145_p5855
mc20_13TeV.508788.MGPy8EG_hh_bbbb_vbf_novhh_l1cvv1cv1_largeRfilt.deriv.DAOD_PHYS.e8338_s3681_r13144_p5855
mc20_13TeV.508788.MGPy8EG_hh_bbbb_vbf_novhh_l1cvv1cv1_largeRfilt.deriv.DAOD_PHYS.e8338_s3681_r13167_p5855
mc20_13TeV.512189.MGPy8EG_hh_bbbb_vbf_novhh_l2cvv1cv1_largeRfilt.deriv.DAOD_PHYS.e8338_s3681_r13144_p5855
mc20_13TeV.512189.MGPy8EG_hh_bbbb_vbf_novhh_l2cvv1cv1_largeRfilt.deriv.DAOD_PHYS.e8338_s3681_r13167_p5855
mc20_13TeV.512189.MGPy8EG_hh_bbbb_vbf_novhh_l2cvv1cv1_largeRfilt.deriv.DAOD_PHYS.e8338_s3681_r13145_p5855
mc20_13TeV.512190.MGPy8EG_hh_bbbb_vbf_novhh_l10cvv1cv1_largeRfilt.deriv.DAOD_PHYS.e8338_s3681_r13144_p5855
mc20_13TeV.512190.MGPy8EG_hh_bbbb_vbf_novhh_l10cvv1cv1_largeRfilt.deriv.DAOD_PHYS.e8338_s3681_r13145_p5855
mc20_13TeV.512190.MGPy8EG_hh_bbbb_vbf_novhh_l10cvv1cv1_largeRfilt.deriv.DAOD_PHYS.e8338_s3681_r13167_p5855
