mc20_13TeV:mc20_13TeV.700706.Sh_2212_ttW_dilep.deriv.DAOD_PHYS.e8470_a907_r14859_p5855
mc20_13TeV:mc20_13TeV.700706.Sh_2212_ttW_dilep.deriv.DAOD_PHYS.e8470_a907_r14860_p5855
mc20_13TeV:mc20_13TeV.700706.Sh_2212_ttW_dilep.deriv.DAOD_PHYS.e8470_a907_r14861_p5855
